%YAML 1.1
%TAG !u! tag:unity3d.com,2011:
--- !u!114 &11400000
MonoBehaviour:
  m_ObjectHideFlags: 0
  m_CorrespondingSourceObject: {fileID: 0}
  m_PrefabInstance: {fileID: 0}
  m_PrefabAsset: {fileID: 0}
  m_GameObject: {fileID: 0}
  m_Enabled: 1
  m_EditorHideFlags: 0
  m_Script: {fileID: 11500000, guid: 1b94da9318d84e37b2e84422525dd10f, type: 3}
  m_Name: UI
  m_EditorClassIdentifier: 
  uiAssignments:
  - name: 0
    uiElement: {fileID: 5745223261694190973, guid: f545996bbcab1f842babdfd633b2b286,
      type: 3}
  - name: 1
    uiElement: {fileID: 7735479833820033258, guid: 0546b65837ce6b3468d5b17c3ba2b9be,
      type: 3}
  - name: 2
    uiElement: {fileID: 1237686879889042209, guid: 2b5121ba608065344aa77b6c6ae4f27b,
      type: 3}
