%YAML 1.1
%TAG !u! tag:unity3d.com,2011:
--- !u!1001 &2470322050164682699
PrefabInstance:
  m_ObjectHideFlags: 0
  serializedVersion: 2
  m_Modification:
    serializedVersion: 3
    m_TransformParent: {fileID: 0}
    m_Modifications:
    - target: {fileID: 707353851762449085, guid: fb6163de5b9469e4fafe21b9522dbc83,
        type: 3}
      propertyPath: m_LocalPosition.x
      value: -13.6682625
      objectReference: {fileID: 0}
    - target: {fileID: 707353851762449085, guid: fb6163de5b9469e4fafe21b9522dbc83,
        type: 3}
      propertyPath: m_LocalPosition.y
      value: -0.05000019
      objectReference: {fileID: 0}
    - target: {fileID: 707353851762449085, guid: fb6163de5b9469e4fafe21b9522dbc83,
        type: 3}
      propertyPath: m_LocalPosition.z
      value: -89.332695
      objectReference: {fileID: 0}
    - target: {fileID: 707353851762449085, guid: fb6163de5b9469e4fafe21b9522dbc83,
        type: 3}
      propertyPath: m_LocalRotation.w
      value: 0
      objectReference: {fileID: 0}
    - target: {fileID: 707353851762449085, guid: fb6163de5b9469e4fafe21b9522dbc83,
        type: 3}
      propertyPath: m_LocalRotation.x
      value: 0
      objectReference: {fileID: 0}
    - target: {fileID: 707353851762449085, guid: fb6163de5b9469e4fafe21b9522dbc83,
        type: 3}
      propertyPath: m_LocalRotation.y
      value: 1
      objectReference: {fileID: 0}
    - target: {fileID: 707353851762449085, guid: fb6163de5b9469e4fafe21b9522dbc83,
        type: 3}
      propertyPath: m_LocalRotation.z
      value: 0
      objectReference: {fileID: 0}
    - target: {fileID: 707353851762449085, guid: fb6163de5b9469e4fafe21b9522dbc83,
        type: 3}
      propertyPath: m_LocalEulerAnglesHint.x
      value: 0
      objectReference: {fileID: 0}
    - target: {fileID: 707353851762449085, guid: fb6163de5b9469e4fafe21b9522dbc83,
        type: 3}
      propertyPath: m_LocalEulerAnglesHint.y
      value: 180
      objectReference: {fileID: 0}
    - target: {fileID: 707353851762449085, guid: fb6163de5b9469e4fafe21b9522dbc83,
        type: 3}
      propertyPath: m_LocalEulerAnglesHint.z
      value: 0
      objectReference: {fileID: 0}
    - target: {fileID: 2683883235893973843, guid: fb6163de5b9469e4fafe21b9522dbc83,
        type: 3}
      propertyPath: buildIcon
      value: 
      objectReference: {fileID: 21300000, guid: 7c4b9c3928d55f34e810938998e230b6,
        type: 3}
    - target: {fileID: 2683883235893973843, guid: fb6163de5b9469e4fafe21b9522dbc83,
        type: 3}
      propertyPath: unitCost.Array.size
      value: 2
      objectReference: {fileID: 0}
    - target: {fileID: 2683883235893973843, guid: fb6163de5b9469e4fafe21b9522dbc83,
        type: 3}
      propertyPath: unitCost.Array.data[0].amount
      value: 250
      objectReference: {fileID: 0}
    - target: {fileID: 2683883235893973843, guid: fb6163de5b9469e4fafe21b9522dbc83,
        type: 3}
      propertyPath: unitCost.Array.data[1].amount
      value: 15
      objectReference: {fileID: 0}
    - target: {fileID: 2683883235893973843, guid: fb6163de5b9469e4fafe21b9522dbc83,
        type: 3}
      propertyPath: unitCost.Array.data[1].resourceType
      value: 1
      objectReference: {fileID: 0}
    - target: {fileID: 5093426478694231077, guid: fb6163de5b9469e4fafe21b9522dbc83,
        type: 3}
      propertyPath: m_Name
      value: Giant Variant
      objectReference: {fileID: 0}
    - target: {fileID: 5555728054594602454, guid: fb6163de5b9469e4fafe21b9522dbc83,
        type: 3}
      propertyPath: m_Mesh
      value: 
      objectReference: {fileID: -5487235281073083613, guid: 11bb13b5b921cb849a1439ed310dd3ba,
        type: 3}
    - target: {fileID: 5760765432776734994, guid: fb6163de5b9469e4fafe21b9522dbc83,
        type: 3}
      propertyPath: stats.statPreset
      value: 
      objectReference: {fileID: 11400000, guid: 53bdccb067bde4641ab6421438cda156,
        type: 2}
    - target: {fileID: 8415594742456564977, guid: fb6163de5b9469e4fafe21b9522dbc83,
        type: 3}
      propertyPath: 'abilityPresets.Array.data[0]'
      value: 
      objectReference: {fileID: 11400000, guid: 77de21cdce46345429f7e474e9079208,
        type: 2}
    - target: {fileID: 8670731685057050233, guid: fb6163de5b9469e4fafe21b9522dbc83,
        type: 3}
      propertyPath: 'm_Materials.Array.data[0]'
      value: 
      objectReference: {fileID: 2100000, guid: 4e321ac97b5d91945ad491f2bc319926, type: 2}
    m_RemovedComponents: []
    m_RemovedGameObjects: []
    m_AddedGameObjects: []
    m_AddedComponents: []
  m_SourcePrefab: {fileID: 100100000, guid: fb6163de5b9469e4fafe21b9522dbc83, type: 3}
