%YAML 1.1
%TAG !u! tag:unity3d.com,2011:
--- !u!114 &11400000
MonoBehaviour:
  m_ObjectHideFlags: 0
  m_CorrespondingSourceObject: {fileID: 0}
  m_PrefabInstance: {fileID: 0}
  m_PrefabAsset: {fileID: 0}
  m_GameObject: {fileID: 0}
  m_Enabled: 1
  m_EditorHideFlags: 0
  m_Script: {fileID: 11500000, guid: 0b002d97bd6e4790ad119e3e08e672bb, type: 3}
  m_Name: GiantAction
  m_EditorClassIdentifier: 
  priority: 5
  targetPriority: 0
  targetSearchType: 0
  useRange: 4
  useDuration: 2.5
  targetSearchRange: 10
  abilityTarget: 02000000
  abilityName: 
  abilityDescription: 
  cooldown: 2.5
  hasCharges: 0
  chargeData:
    restoreAtOnce: 0
    charges: 0
    cooldownTimeBetweenCharges: 0
  useAction: {fileID: 11400000, guid: 935d4e21a29139b4286dead3e52b9e9f, type: 2}
