%YAML 1.1
%TAG !u! tag:unity3d.com,2011:
--- !u!114 &11400000
MonoBehaviour:
  m_ObjectHideFlags: 0
  m_CorrespondingSourceObject: {fileID: 0}
  m_PrefabInstance: {fileID: 0}
  m_PrefabAsset: {fileID: 0}
  m_GameObject: {fileID: 0}
  m_Enabled: 1
  m_EditorHideFlags: 0
  m_Script: {fileID: 11500000, guid: 4dbe62fb1def422e90fbac8da6e2f270, type: 3}
  m_Name: PiercingHit
  m_EditorClassIdentifier: 
  impactVFX: {fileID: 6815698896154384423, guid: eaf9f4a6458e2754f98f29b3ce509442,
    type: 3}
  impactVFXDuration: 1
  impactDamage:
    damageType: 2
    value: 5
  impactModifiers:
  - statModiferId: sedq2b qwev
    statType: 3
    value: -1
    modifierType: 0
    changedSubValue: 0
