%YAML 1.1
%TAG !u! tag:unity3d.com,2011:
--- !u!114 &11400000
MonoBehaviour:
  m_ObjectHideFlags: 0
  m_CorrespondingSourceObject: {fileID: 0}
  m_PrefabInstance: {fileID: 0}
  m_PrefabAsset: {fileID: 0}
  m_GameObject: {fileID: 0}
  m_Enabled: 1
  m_EditorHideFlags: 0
  m_Script: {fileID: 11500000, guid: 4dbe62fb1def422e90fbac8da6e2f270, type: 3}
  m_Name: MountedKnightDamage
  m_EditorClassIdentifier: 
  impactVFX: {fileID: 8570084337746410234, guid: ab977c48d31890e4490cd153d2330c81,
    type: 3}
  impactVFXDuration: 1
  impactDamage:
    damageType: 0
    value: 9
  impactModifiers: []
