%YAML 1.1
%TAG !u! tag:unity3d.com,2011:
--- !u!114 &11400000
MonoBehaviour:
  m_ObjectHideFlags: 0
  m_CorrespondingSourceObject: {fileID: 0}
  m_PrefabInstance: {fileID: 0}
  m_PrefabAsset: {fileID: 0}
  m_GameObject: {fileID: 0}
  m_Enabled: 1
  m_EditorHideFlags: 0
  m_Script: {fileID: 11500000, guid: dadc52f0d4474e5f925ad9d4b895be47, type: 3}
  m_Name: Age 3 2 - Normal Wave 1
  m_EditorClassIdentifier: 
  spawnData:
  - delayBeforeUnit: 0.3
    numberOfUnits: 1
    toSpawn: {fileID: 7891487222697810575, guid: 44760f1bfa5c7b242903a1dcb8475cc8,
      type: 3}
  - delayBeforeUnit: 0.3
    numberOfUnits: 0
    toSpawn: {fileID: 208080183854590381, guid: 8a12ffb6b81eec34a95684967a7ab3b5,
      type: 3}
  - delayBeforeUnit: 0.3
    numberOfUnits: 2
    toSpawn: {fileID: 208080183854590381, guid: ba19522e52da8f6428b65d1059b87717,
      type: 3}
  - delayBeforeUnit: 0.3
    numberOfUnits: 1
    toSpawn: {fileID: 168501254438918756, guid: 1f0afed827bc33c4c8f2e96a0d436ac5,
      type: 3}
  - delayBeforeUnit: 0.3
    numberOfUnits: 0
    toSpawn: {fileID: 6478114342477227009, guid: 16a9e31f83c971549a407cd347e6dbf6,
      type: 3}
  cost: 200
  delayAfterWave: 15
